<svg width="16" height="16" viewBox="0 0 16 16" fill="none" xmlns="http://www.w3.org/2000/svg">
    <rect width="16" height="16" rx="8" fill="#0F8277"/>
    <path d="M4 7.16667L7.33333 10.5L12 5.5" stroke="#F6FDFF" stroke-width="2" stroke-linecap="round"/>
</svg>
